[
    {
        "vrstaIzracunaId": "0",
        "resultType": "_credit",
        "productBoxData": {
            "productName": "Stanovanjski kredit",
            "productId": "0000000000074130",
            "productLink": "/krediti/stanovanjski-kredit",
            "productText": "Nakup ali prenova nepremičnine sta dostopnejša s stanovanjskim kreditom pri Abanki."
        },
        "reportDate": "04. 01. 2017",
        "calculations": [
            {
                "monthlyPayment": "235,68 EUR",
                "creditAmount": "25.000,00 EUR",
                "interestRate": "EURIBOR6M + 2,500 o.t.",
                "repaymentPeriod": "120",
                "effectiveInterestRate": "3,29",
                "reportId": "0000000000074130",
                "productType": "Klasični stanovanjski kredit",
                "customerType": "Komitent Abanke",
                "totalAmountToPay": "29.203,09 EUR",
                "dateOfDrawdown": "04. 01. 2017",
                "interestRateType": "EURIBOR6M",
                "rom": "( EURIBOR6M = 0,000 % )",
                "insuranceType": "Zavarovalnica Triglav",
                "approvalFees": "350,00 EUR",
                "insuranceCos": "528,87 EUR",
                "intercalaryInterestAmount": "46,23 EUR",
                "interestRateText": "s spremenljivo obrestno mero",
                "reportTitle": "Podrobnosti izračuna kredita in dodatna pojasnila za kredit s spremenljivo obrestno mero",
                "interestRateLegalTextKey": "variableInterestRate",
                "insuranceCosShown": true
            },
            {
                "monthlyPayment": "243,72 EUR",
                "creditAmount": "25.000,00 EUR",
                "interestRate": "3,20 %",
                "repaymentPeriod": "120",
                "effectiveInterestRate": "3,99",
                "reportId": "0000000000074131",
                "productType": "Klasični stanovanjski kredit",
                "customerType": "Komitent Abanke",
                "totalAmountToPay": "30.148,37 EUR",
                "dateOfDrawdown": "04. 01. 2017",
                "interestRateType": "NOM",
                "insuranceType": "Zavarovalnica Triglav",
                "approvalFees": "350,00 EUR",
                "insuranceCos": "497,19 EUR",
                "intercalaryInterestAmount": "59,18 EUR",
                "interestRateText": "s fiksno obrestno mero",
                "reportTitle": "Podrobnosti izračuna in dodatna pojasnila za kredit s fiksno obrestno mero",
                "interestRateLegalTextKey": "fixedInterestRate",
                "insuranceCosShown": true
            }
        ]
    },
    {
        "vrstaIzracunaId": "0",
        "resultType": "_credit",
        "productBoxData": {
            "productName": "Posebna ponudba",
            "productId": "0000000000074132",
            "productLink": "/krediti/posebna-ponudba",
            "productText": "Nakup ali prenova nepremičnine sta dostopnejša s stanovanjskim kreditom pri Abanki."
        },
        "reportDate": "04. 01. 2017",
        "calculations": [
            {
                "monthlyPayment": "237,96 EUR",
                "creditAmount": "25.000,00 EUR",
                "interestRate": "2,70 %",
                "repaymentPeriod": "120",
                "effectiveInterestRate": "3,46",
                "reportId": "0000000000074132",
                "productType": "Stanovanjski kredit - posebna ponudba",
                "customerType": "Komitent Abanke",
                "totalAmountToPay": "29.436,73 EUR",
                "dateOfDrawdown": "04. 01. 2017",
                "interestRateType": "NOM",
                "insuranceType": "Zavarovalnica Triglav",
                "approvalFees": "350,00 EUR",
                "insuranceCos": "485,44 EUR",
                "intercalaryInterestAmount": "49,93 EUR",
                "interestRateText": "s fiksno obrestno mero",
                "reportTitle": "Podrobnosti izračuna in dodatna pojasnila za kredit s fiksno obrestno mero",
                "interestRateLegalTextKey": "fixedInterestRate",
                "insuranceCosShown": true
            },
            {
                "monthlyPayment": "227,81 EUR",
                "creditAmount": "25.000,00 EUR",
                "interestRate": "EURIBOR6M + 1,800 o.t.",
                "repaymentPeriod": "120",
                "effectiveInterestRate": "2,54",
                "reportId": "0000000000074129",
                "productType": "Stanovanjski kredit - posebna ponudba",
                "customerType": "Komitent Abanke",
                "totalAmountToPay": "28.228,60 EUR",
                "dateOfDrawdown": "04. 01. 2017",
                "interestRateType": "EURIBOR6M",
                "rom": "( EURIBOR6M = 0,000 % )",
                "insuranceType": "Zavarovalnica Triglav",
                "approvalFees": "350,00 EUR",
                "insuranceCos": "511,21 EUR",
                "intercalaryInterestAmount": "33,29 EUR",
                "interestRateText": "s spremenljivo obrestno mero",
                "reportTitle": "Podrobnosti izračuna kredita in dodatna pojasnila za kredit s spremenljivo obrestno mero",
                "interestRateLegalTextKey": "variableInterestRate",
                "insuranceCosShown": true
            }
        ]
    }
]