{
   "annuity": 86.70,
   "ear": 13.2,
   "costsTotal": 80.30,
   "amountRepay": 1080.30,
   "apr": 4.2,
   "aprType": "FIX",
   "aprBase": 4.2,
   "product": "Potrošniški kredit",
   "provider": "LON" 
}