{
 "loan": {
	 "amount": 1000.12,
	 "duration": 12,
	 "purposeId": "CASH" 
 },
 "quotes": [
  {
   "annuity": 85.70,
   "ear": 15.4,
   "costsTotal": 81.02,
   "amountRepay": 1081.02,
   "apr": 5.2,
   "aprType": "Fiksna",
   "aprBase": 5.2,
   "product": "Osebni kredit",
   "provider": "NLB" 
  },
  {
   "annuity": 86.70,
   "ear": 13.2,
   "costsTotal": 80.30,
   "amountRepay": 1080.30,
   "apr": 4.2,
   "aprType": "Fiksna",
   "aprBase": 4.2,
   "product": "Potrošniški kredit",
   "provider": "LON" 
  },
  {
   "annuity": 86.70,
   "ear": 4.2,
   "costsTotal": 100.30,
   "amountRepay": 1100.30,
   "apr": 3.6,
   "aprType": "Spremenljiva",
   "aprBase": 3.2,
   "product": "Osebni kredit",
   "provider": "NKBM" 
  }
 ],
 "kind": "reloaded#trades",
 "etag": "\"-gaIgjtR2K2czhZdyPv9SRWpIls/6RtQptwQa5LT0ZjyEo93VKT0Jcs\""
}