{
   "annuity": 85.70,
   "ear": 15.4,
   "costsTotal": 81.02,
   "amountRepay": 1081.02,
   "apr": 5.2,
   "aprType": "FIX",
   "aprBase": 5.2,
   "product": "Osebni kredit",
   "provider": "NLB" 
 }